<?xml version="1.0" standalone="no"?>
<!DOCTYPE svg PUBLIC "-//W3C//DTD SVG 20010904//EN"
 "http://www.w3.org/TR/2001/REC-SVG-20010904/DTD/svg10.dtd">
<svg version="1.0" xmlns="http://www.w3.org/2000/svg"
 width="1652.000000pt" height="1652.000000pt" viewBox="0 0 1652.000000 1652.000000"
 preserveAspectRatio="xMidYMid meet">
<metadata>
Created by potrace 1.11, written by Peter Selinger 2001-2013
</metadata>
<g transform="translate(0.000000,1652.000000) scale(0.100000,-0.100000)"
fill="#000000" stroke="none">
<path d="M7858 16515 c-2 -2 -55 -7 -118 -10 -63 -3 -126 -7 -140 -9 -14 -2
-65 -7 -114 -11 -50 -4 -97 -8 -105 -10 -9 -1 -47 -6 -84 -10 -37 -3 -76 -8
-85 -10 -9 -1 -44 -6 -77 -9 -59 -7 -75 -9 -145 -21 -19 -3 -48 -8 -65 -11
-32 -5 -230 -40 -280 -50 -16 -3 -50 -10 -75 -16 -25 -5 -58 -12 -75 -15 -16
-2 -66 -14 -110 -25 -44 -11 -87 -21 -95 -23 -8 -2 -53 -13 -100 -25 -47 -12
-92 -23 -100 -25 -55 -12 -352 -103 -485 -149 -219 -75 -516 -190 -660 -255
-22 -10 -78 -36 -125 -57 -107 -48 -507 -251 -578 -293 -29 -17 -55 -31 -57
-31 -10 0 -363 -219 -505 -313 -140 -93 -476 -338 -574 -418 -99 -81 -175
-144 -201 -167 -16 -15 -45 -39 -63 -54 -133 -107 -514 -480 -697 -682 -372
-411 -734 -900 -990 -1338 -373 -638 -638 -1248 -830 -1912 -38 -129 -115
-430 -129 -501 -3 -11 -21 -100 -40 -197 -20 -98 -38 -193 -41 -213 -2 -19 -9
-60 -14 -92 -6 -32 -13 -76 -15 -98 -3 -22 -11 -74 -16 -115 -6 -41 -13 -95
-16 -120 -2 -25 -6 -63 -9 -85 -3 -22 -7 -74 -11 -115 -3 -41 -7 -88 -9 -105
-27 -225 -27 -1086 0 -1325 2 -19 6 -71 10 -115 4 -44 8 -93 10 -110 2 -16 7
-51 10 -78 10 -88 16 -142 20 -167 3 -14 9 -56 14 -95 12 -80 21 -138 27 -169
2 -11 7 -37 10 -56 37 -221 128 -610 198 -850 301 -1033 773 -1949 1452 -2820
175 -223 411 -487 659 -735 131 -131 188 -184 355 -335 71 -65 318 -269 430
-355 93 -72 385 -283 450 -325 8 -5 56 -36 105 -68 382 -249 837 -490 1258
-667 73 -31 141 -60 152 -65 79 -36 469 -174 650 -229 150 -45 496 -138 580
-155 11 -2 43 -9 70 -16 46 -10 268 -53 340 -66 17 -2 37 -7 45 -9 8 -2 39 -7
69 -10 30 -3 57 -7 60 -9 3 -2 31 -7 62 -10 31 -4 65 -8 75 -10 11 -2 46 -7
79 -10 33 -4 74 -9 90 -11 81 -10 126 -15 190 -20 39 -3 90 -8 115 -10 302
-28 1002 -27 1305 0 28 3 77 8 110 11 133 12 245 24 275 29 8 2 42 6 75 9 33
4 83 11 110 16 28 5 68 12 90 15 35 4 111 17 125 20 3 1 25 5 50 9 25 5 54 10
65 12 11 2 34 7 50 9 17 3 37 8 45 10 8 2 29 7 47 10 88 15 449 105 603 150
30 9 60 17 65 19 57 14 419 135 500 166 44 17 94 36 110 41 17 6 39 15 50 19
11 5 81 34 155 65 74 31 149 62 165 70 17 7 62 28 100 45 56 26 259 125 423
209 120 60 431 244 627 369 156 100 525 365 642 461 17 14 49 40 70 58 403
331 798 718 1100 1078 291 347 528 676 737 1020 53 88 101 167 107 175 5 8 15
26 21 40 7 14 21 38 31 53 63 92 314 606 412 842 7 17 22 50 33 75 107 241
338 953 378 1164 2 12 11 50 20 86 9 36 18 76 21 90 2 14 8 41 13 60 5 19 11
52 14 74 4 21 8 41 10 45 2 3 7 29 10 56 4 28 9 57 11 65 2 8 6 27 9 43 19
107 26 146 30 177 2 19 10 71 16 115 14 101 17 126 25 200 4 33 9 71 11 85 2
14 6 57 9 95 3 39 8 93 10 120 28 327 28 1016 0 1320 -16 173 -21 220 -30 305
-6 54 -15 126 -20 160 -2 14 -11 75 -20 135 -8 61 -20 130 -25 155 -5 25 -12
61 -15 80 -15 94 -60 303 -101 470 -140 574 -341 1128 -599 1655 -82 167 -129
256 -265 500 -74 133 -369 593 -427 665 -6 8 -53 71 -104 140 -76 103 -329
422 -349 440 -3 3 -23 25 -44 50 -211 243 -579 613 -786 790 -14 12 -38 34
-55 48 -16 15 -66 56 -110 92 -44 36 -86 71 -93 78 -8 7 -30 25 -50 40 -21 15
-39 30 -42 33 -5 5 -275 208 -317 237 -122 85 -215 148 -298 201 -55 35 -122
78 -150 96 -296 190 -840 467 -1205 613 -414 167 -749 276 -1140 371 -211 51
-327 78 -370 85 -14 2 -63 11 -110 20 -47 8 -101 18 -120 21 -19 3 -46 8 -60
10 -100 17 -289 44 -355 50 -27 3 -66 7 -85 10 -19 2 -69 7 -110 10 -41 3 -97
8 -125 10 -27 3 -81 8 -120 11 -76 7 -931 15 -937 9z m-340 -4425 c0 -938 1
-1713 1 -1722 1 -12 14 -3 43 30 157 175 326 300 543 403 142 67 349 131 499
155 21 3 46 7 56 9 90 17 390 26 490 14 30 -4 82 -10 115 -13 123 -12 295 -50
440 -97 217 -71 523 -239 685 -376 109 -91 268 -257 351 -363 282 -365 451
-755 543 -1255 71 -386 67 -933 -9 -1295 -3 -14 -8 -38 -10 -55 -22 -125 -104
-386 -172 -549 -208 -496 -556 -917 -985 -1189 -178 -114 -418 -216 -628 -267
-108 -27 -106 -26 -163 -34 -27 -4 -56 -9 -65 -11 -101 -19 -457 -28 -541 -14
-25 4 -66 10 -91 13 -113 12 -295 60 -425 111 -292 115 -573 336 -730 573 -15
23 -30 40 -33 37 -5 -5 -7 -29 -17 -365 -4 -113 -11 -207 -15 -210 -7 -4
-1671 -5 -1691 -1 -3 0 -6 1839 -6 4086 l0 4084 21 3 c12 2 420 3 907 3 l886
0 1 -1705z m3342 -8169 l0 -556 -2572 0 -2573 0 -3 556 -2 556 2575 0 2575 0
0 -556z"/>
<path d="M8448 9376 c-1 -2 -37 -6 -78 -9 -242 -20 -449 -111 -610 -269 -66
-65 -160 -178 -160 -193 0 -4 -9 -20 -21 -36 -31 -44 -94 -195 -114 -273 -38
-155 -46 -214 -47 -376 -2 -367 116 -665 351 -888 151 -144 352 -237 555 -257
306 -32 560 31 770 189 214 162 351 386 413 677 19 90 26 396 10 494 -23 146
-89 341 -143 421 -13 19 -24 37 -24 40 0 14 -93 128 -155 189 -120 118 -254
198 -410 243 -87 26 -119 31 -225 38 -47 3 -90 7 -97 9 -6 2 -13 2 -15 1z"/>
</g>
</svg>
